[gd_scene load_steps=3 format=3 uid="uid://csgfscdfft2v"]

[ext_resource type="Script" path="res://object/ui_nave/space_ui.gd" id="1_dqb7u"]
[ext_resource type="PackedScene" uid="uid://domwrjkq6y67h" path="res://object/ui_nave/ui_box.tscn" id="2_au2v2"]

[node name="space_ui" type="Control"]
layout_mode = 3
anchors_preset = 0
offset_left = 356.0
offset_top = 34.0
offset_right = 1140.0
offset_bottom = 606.0
script = ExtResource("1_dqb7u")

[node name="Control" parent="." instance=ExtResource("2_au2v2")]
offset_right = 942.0
scale = Vector2(0.35, 0.35)

[node name="Control2" parent="." instance=ExtResource("2_au2v2")]
offset_left = 400.0
offset_right = 1330.0
offset_bottom = 1397.0
scale = Vector2(0.35, 0.35)
