[gd_scene load_steps=3 format=3 uid="uid://bhr65kfrel18n"]

[ext_resource type="Script" path="res://object/Controller/controller_covid.gd" id="1_1kbj4"]
[ext_resource type="Texture2D" uid="uid://b7gpi1ig38xku" path="res://images/background/backgroud1.png" id="2_waxod"]

[node name="ControllerCovid" type="Node2D" groups=["Controller"]]
script = ExtResource("1_1kbj4")
bark_1 = Color(0.941176, 0.92549, 0.772549, 1)
bark_2 = Color(1, 0.823529, 0.87451, 1)
bark_3 = Color(0.992157, 0.941176, 0.764706, 1)
bark_4 = Color(0.819608, 0.968627, 0.996078, 1)
bark_5 = Color(0.733333, 0.741176, 0.921569, 1)

[node name="Marker2D" type="Marker2D" parent="."]
position = Vector2(1248, 350)

[node name="Timer" type="Timer" parent="."]
wait_time = 5.0
autostart = true

[node name="PandemicTimer" type="Timer" parent="."]
wait_time = 5.0
autostart = true

[node name="MedicinasTimer" type="Timer" parent="."]
wait_time = 10.0
autostart = true

[node name="CovidTimer" type="Timer" parent="."]
wait_time = 10.0
autostart = true

[node name="Background" type="Node2D" parent="."]
z_index = -10

[node name="Backgroud1" type="Sprite2D" parent="Background"]
position = Vector2(572, 322)
scale = Vector2(1.92308, 2.41333)
texture = ExtResource("2_waxod")

[node name="TotsTimer" type="Timer" parent="."]
wait_time = 0.2

[connection signal="timeout" from="Timer" to="." method="_on_timer_timeout"]
[connection signal="timeout" from="PandemicTimer" to="." method="_on_pandemic_timer_timeout"]
[connection signal="timeout" from="MedicinasTimer" to="." method="_on_medicinas_timer_timeout"]
[connection signal="timeout" from="CovidTimer" to="." method="_on_covid_timer_timeout"]
[connection signal="timeout" from="TotsTimer" to="." method="_on_tots_timer_timeout"]
