[gd_scene load_steps=3 format=3 uid="uid://bshs8jvdbmuu8"]

[ext_resource type="Script" path="res://object/Pandemic/potion.gd" id="1_kpgx3"]
[ext_resource type="AudioStream" uid="uid://bpjsot5egdwks" path="res://images/sound/Potion.ogg" id="1_ovdy8"]

[node name="Potion" type="Node2D"]
script = ExtResource("1_kpgx3")

[node name="AudioStreamPlayer2D" type="AudioStreamPlayer2D" parent="."]
stream = ExtResource("1_ovdy8")
volume_db = 3.0
